^D:\FAKULTET\4 GODINA\I SEMESTAR\GRAFIKA\RESENI BLANKETI\PISMENI\GDI\GDI\TEMPLATE\STDAFX.CPP
/c /ZI /JMC /nologo /W3 /WX- /diagnostics:column /sdl /Od /Oy- /D WIN32 /D _WINDOWS /D _DEBUG /D _UNICODE /D UNICODE /D _AFXDLL /Gm- /EHsc /RTC1 /MDd /GS /fp:precise /Zc:wchar_t /Zc:forScope /Zc:inline /Yc"stdafx.h" /Fp"DEBUG\TEMPLATE.PCH" /Fo"DEBUG\\" /Fd"DEBUG\VC142.PDB" /Gd /TP /analyze- /FC D:\FAKULTET\4 GODINA\I SEMESTAR\GRAFIKA\RESENI BLANKETI\PISMENI\GDI\GDI\TEMPLATE\STDAFX.CPP
^D:\FAKULTET\4 GODINA\I SEMESTAR\GRAFIKA\RESENI BLANKETI\PISMENI\GDI\GDI\TEMPLATE\DIMAGE.CPP
/c /ZI /JMC /nologo /W3 /WX- /diagnostics:column /sdl /Od /Oy- /D WIN32 /D _WINDOWS /D _DEBUG /D _UNICODE /D UNICODE /D _AFXDLL /Gm- /EHsc /RTC1 /MDd /GS /fp:precise /Zc:wchar_t /Zc:forScope /Zc:inline /Yu"stdafx.h" /Fp"DEBUG\TEMPLATE.PCH" /Fo"DEBUG\\" /Fd"DEBUG\VC142.PDB" /Gd /TP /analyze- /FC D:\FAKULTET\4 GODINA\I SEMESTAR\GRAFIKA\RESENI BLANKETI\PISMENI\GDI\GDI\TEMPLATE\DIMAGE.CPP
^D:\FAKULTET\4 GODINA\I SEMESTAR\GRAFIKA\RESENI BLANKETI\PISMENI\GDI\GDI\TEMPLATE\MAINFRM.CPP
/c /ZI /JMC /nologo /W3 /WX- /diagnostics:column /sdl /Od /Oy- /D WIN32 /D _WINDOWS /D _DEBUG /D _UNICODE /D UNICODE /D _AFXDLL /Gm- /EHsc /RTC1 /MDd /GS /fp:precise /Zc:wchar_t /Zc:forScope /Zc:inline /Yu"stdafx.h" /Fp"DEBUG\TEMPLATE.PCH" /Fo"DEBUG\\" /Fd"DEBUG\VC142.PDB" /Gd /TP /analyze- /FC D:\FAKULTET\4 GODINA\I SEMESTAR\GRAFIKA\RESENI BLANKETI\PISMENI\GDI\GDI\TEMPLATE\MAINFRM.CPP
^D:\FAKULTET\4 GODINA\I SEMESTAR\GRAFIKA\RESENI BLANKETI\PISMENI\GDI\GDI\TEMPLATE\GDIDOC.CPP
/c /ZI /JMC /nologo /W3 /WX- /diagnostics:column /sdl /Od /Oy- /D WIN32 /D _WINDOWS /D _DEBUG /D _UNICODE /D UNICODE /D _AFXDLL /Gm- /EHsc /RTC1 /MDd /GS /fp:precise /Zc:wchar_t /Zc:forScope /Zc:inline /Yu"stdafx.h" /Fp"DEBUG\TEMPLATE.PCH" /Fo"DEBUG\\" /Fd"DEBUG\VC142.PDB" /Gd /TP /analyze- /FC D:\FAKULTET\4 GODINA\I SEMESTAR\GRAFIKA\RESENI BLANKETI\PISMENI\GDI\GDI\TEMPLATE\GDIDOC.CPP
^D:\FAKULTET\4 GODINA\I SEMESTAR\GRAFIKA\RESENI BLANKETI\PISMENI\GDI\GDI\TEMPLATE\GDI.CPP
/c /ZI /JMC /nologo /W3 /WX- /diagnostics:column /sdl /Od /Oy- /D WIN32 /D _WINDOWS /D _DEBUG /D _UNICODE /D UNICODE /D _AFXDLL /Gm- /EHsc /RTC1 /MDd /GS /fp:precise /Zc:wchar_t /Zc:forScope /Zc:inline /Yu"stdafx.h" /Fp"DEBUG\TEMPLATE.PCH" /Fo"DEBUG\\" /Fd"DEBUG\VC142.PDB" /Gd /TP /analyze- /FC D:\FAKULTET\4 GODINA\I SEMESTAR\GRAFIKA\RESENI BLANKETI\PISMENI\GDI\GDI\TEMPLATE\GDI.CPP
^D:\FAKULTET\4 GODINA\I SEMESTAR\GRAFIKA\RESENI BLANKETI\PISMENI\GDI\GDI\TEMPLATE\GDIVIEW.CPP
/c /ZI /JMC /nologo /W3 /WX- /diagnostics:column /sdl /Od /Oy- /D WIN32 /D _WINDOWS /D _DEBUG /D _UNICODE /D UNICODE /D _AFXDLL /Gm- /EHsc /RTC1 /MDd /GS /fp:precise /Zc:wchar_t /Zc:forScope /Zc:inline /Yu"stdafx.h" /Fp"DEBUG\TEMPLATE.PCH" /Fo"DEBUG\\" /Fd"DEBUG\VC142.PDB" /Gd /TP /analyze- /FC D:\FAKULTET\4 GODINA\I SEMESTAR\GRAFIKA\RESENI BLANKETI\PISMENI\GDI\GDI\TEMPLATE\GDIVIEW.CPP
