^D:\FAKULTET\4 GODINA\I SEMESTAR\GRAFIKA\RESENI BLANKETI\PISMENI\GDI\GDI\TEMPLATE\DEBUG\DIMAGE.OBJ|D:\FAKULTET\4 GODINA\I SEMESTAR\GRAFIKA\RESENI BLANKETI\PISMENI\GDI\GDI\TEMPLATE\DEBUG\GDI.OBJ|D:\FAKULTET\4 GODINA\I SEMESTAR\GRAFIKA\RESENI BLANKETI\PISMENI\GDI\GDI\TEMPLATE\DEBUG\GDIDOC.OBJ|D:\FAKULTET\4 GODINA\I SEMESTAR\GRAFIKA\RESENI BLANKETI\PISMENI\GDI\GDI\TEMPLATE\DEBUG\GDIVIEW.OBJ|D:\FAKULTET\4 GODINA\I SEMESTAR\GRAFIKA\RESENI BLANKETI\PISMENI\GDI\GDI\TEMPLATE\DEBUG\MAINFRM.OBJ|D:\FAKULTET\4 GODINA\I SEMESTAR\GRAFIKA\RESENI BLANKETI\PISMENI\GDI\GDI\TEMPLATE\DEBUG\MFCKOL12018.RES|D:\FAKULTET\4 GODINA\I SEMESTAR\GRAFIKA\RESENI BLANKETI\PISMENI\GDI\GDI\TEMPLATE\DEBUG\STDAFX.OBJ
/OUT:"D:\FAKULTET\4 GODINA\I SEMESTAR\GRAFIKA\RESENI BLANKETI\PISMENI\GDI\GDI\DEBUG\TEMPLATE.EXE" /INCREMENTAL /NOLOGO /MANIFEST /MANIFESTUAC:"level='asInvoker' uiAccess='false'" /manifest:embed /manifestinput:"C:\PROGRAM FILES (X86)\MICROSOFT VISUAL STUDIO\2019\COMMUNITY\VC\TOOLS\MSVC\14.24.28314\INCLUDE\MANIFEST\DPIAWARE.MANIFEST" /DEBUG:FASTLINK /PDB:"D:\FAKULTET\4 GODINA\I SEMESTAR\GRAFIKA\RESENI BLANKETI\PISMENI\GDI\GDI\DEBUG\TEMPLATE.PDB" /SUBSYSTEM:WINDOWS /TLBID:1 /ENTRY:"wWinMainCRTStartup" /DYNAMICBASE /NXCOMPAT /IMPLIB:"D:\FAKULTET\4 GODINA\I SEMESTAR\GRAFIKA\RESENI BLANKETI\PISMENI\GDI\GDI\DEBUG\TEMPLATE.LIB" /MACHINE:X86 DEBUG\MFCKOL12018.RES
DEBUG\DIMAGE.OBJ
DEBUG\MAINFRM.OBJ
DEBUG\GDI.OBJ
DEBUG\GDIDOC.OBJ
DEBUG\GDIVIEW.OBJ
DEBUG\STDAFX.OBJ
