p1(0,250)
p2(300,50)

3.
c1 = 1001
c2 = 0110

4. 
(c1 | c2)!=0 //ne prihvata se trivijalno

5.
(c1 & c2)==0 //ne odbacuje se trivijalno

6.
Za svako c!=0 treba da odredimo presek
p1'= (75, 200)
p2'- (220, 100)

c1' = 0001
c2' = 0010

4.
(c1 | c2)!=0 //ne prihvata se trivijalno

5. 
(c1 & c2)==0 //ne odbacuje se trivijalno

6.
p1''=(100,185)
p2''=(200,115)


c1' = 0000
c2' = 0000

4.
(c1 | c2)==0 //trivijalno se prihvata
