^D:\FAKULTET\4 GODINA\I SEMESTAR\GRAFIKA\RESENI BLANKETI\PISMENI\GDI\GDI\MFCKOL1_2018\MFCKOL12018.RC
D:\FAKULTET\4 GODINA\I SEMESTAR\GRAFIKA\RESENI BLANKETI\PISMENI\GDI\GDI\MFCKOL1_2018\RESOURCE.H
D:\FAKULTET\4 GODINA\I SEMESTAR\GRAFIKA\RESENI BLANKETI\PISMENI\GDI\GDI\MFCKOL1_2018\TARGETVER.H
C:\PROGRAM FILES (X86)\WINDOWS KITS\10\INCLUDE\10.0.18362.0\SHARED\SDKDDKVER.H
C:\PROGRAM FILES (X86)\MICROSOFT VISUAL STUDIO\2019\COMMUNITY\VC\TOOLS\MSVC\14.24.28314\ATLMFC\INCLUDE\AFXRES.H
C:\PROGRAM FILES (X86)\WINDOWS KITS\10\INCLUDE\10.0.18362.0\UM\WINRES.H
C:\PROGRAM FILES (X86)\WINDOWS KITS\10\INCLUDE\10.0.18362.0\UM\WINRESRC.H
C:\PROGRAM FILES (X86)\WINDOWS KITS\10\INCLUDE\10.0.18362.0\UM\WINUSER.RH
C:\PROGRAM FILES (X86)\WINDOWS KITS\10\INCLUDE\10.0.18362.0\SHARED\WINAPIFAMILY.H
C:\PROGRAM FILES (X86)\WINDOWS KITS\10\INCLUDE\10.0.18362.0\SHARED\WINPACKAGEFAMILY.H
C:\PROGRAM FILES (X86)\WINDOWS KITS\10\INCLUDE\10.0.18362.0\UM\COMMCTRL.RH
C:\PROGRAM FILES (X86)\WINDOWS KITS\10\INCLUDE\10.0.18362.0\UM\DDE.RH
C:\PROGRAM FILES (X86)\WINDOWS KITS\10\INCLUDE\10.0.18362.0\UM\WINNT.RH
C:\PROGRAM FILES (X86)\WINDOWS KITS\10\INCLUDE\10.0.18362.0\UM\DLGS.H
C:\PROGRAM FILES (X86)\WINDOWS KITS\10\INCLUDE\10.0.18362.0\UM\WINVER.H
C:\PROGRAM FILES (X86)\WINDOWS KITS\10\INCLUDE\10.0.18362.0\SHARED\SPECSTRINGS.H
C:\PROGRAM FILES (X86)\MICROSOFT VISUAL STUDIO\2019\COMMUNITY\VC\TOOLS\MSVC\14.24.28314\INCLUDE\SAL.H
C:\PROGRAM FILES (X86)\MICROSOFT VISUAL STUDIO\2019\COMMUNITY\VC\TOOLS\MSVC\14.24.28314\INCLUDE\CONCURRENCYSAL.H
C:\PROGRAM FILES (X86)\WINDOWS KITS\10\INCLUDE\10.0.18362.0\SHARED\DRIVERSPECS.H
C:\PROGRAM FILES (X86)\WINDOWS KITS\10\INCLUDE\10.0.18362.0\SHARED\SDV_DRIVERSPECS.H
C:\PROGRAM FILES (X86)\WINDOWS KITS\10\INCLUDE\10.0.18362.0\UM\VERRSRC.H
D:\FAKULTET\4 GODINA\I SEMESTAR\GRAFIKA\RESENI BLANKETI\PISMENI\GDI\GDI\MFCKOL1_2018\RES\MFCKOL12018.RC2
C:\PROGRAM FILES (X86)\MICROSOFT VISUAL STUDIO\2019\COMMUNITY\VC\TOOLS\MSVC\14.24.28314\ATLMFC\INCLUDE\AFXRES.RC
C:\PROGRAM FILES (X86)\MICROSOFT VISUAL STUDIO\2019\COMMUNITY\VC\TOOLS\MSVC\14.24.28314\ATLMFC\INCLUDE\AFXPRINT.RC
D:\FAKULTET\4 GODINA\I SEMESTAR\GRAFIKA\RESENI BLANKETI\PISMENI\GDI\GDI\MFCKOL1_2018\RES\MFCKOL1_2018.ICO
D:\FAKULTET\4 GODINA\I SEMESTAR\GRAFIKA\RESENI BLANKETI\PISMENI\GDI\GDI\MFCKOL1_2018\RES\MFCKOL1_2018DOC.ICO
D:\FAKULTET\4 GODINA\I SEMESTAR\GRAFIKA\RESENI BLANKETI\PISMENI\GDI\GDI\MFCKOL1_2018\RES\TOOLBAR.BMP
