^D:\FAKULTET\4 GODINA\I SEMESTAR\GRAFIKA\RESENI BLANKETI\PISMENI\GDI\MFCKOL1_2018\MFCKOL1_2018\STDAFX.CPP
D:\FAKULTET\4 GODINA\I SEMESTAR\GRAFIKA\RESENI BLANKETI\PISMENI\GDI\MFCKOL1_2018\MFCKOL1_2018\X64\DEBUG\MFCKOL1_2018.PCH
D:\FAKULTET\4 GODINA\I SEMESTAR\GRAFIKA\RESENI BLANKETI\PISMENI\GDI\MFCKOL1_2018\MFCKOL1_2018\X64\DEBUG\VC142.PDB
D:\FAKULTET\4 GODINA\I SEMESTAR\GRAFIKA\RESENI BLANKETI\PISMENI\GDI\MFCKOL1_2018\MFCKOL1_2018\X64\DEBUG\VC142.IDB
D:\FAKULTET\4 GODINA\I SEMESTAR\GRAFIKA\RESENI BLANKETI\PISMENI\GDI\MFCKOL1_2018\MFCKOL1_2018\X64\DEBUG\STDAFX.OBJ
^D:\FAKULTET\4 GODINA\I SEMESTAR\GRAFIKA\RESENI BLANKETI\PISMENI\GDI\MFCKOL1_2018\MFCKOL1_2018\DIMAGE.CPP|D:\FAKULTET\4 GODINA\I SEMESTAR\GRAFIKA\RESENI BLANKETI\PISMENI\GDI\MFCKOL1_2018\MFCKOL1_2018\MAINFRM.CPP|D:\FAKULTET\4 GODINA\I SEMESTAR\GRAFIKA\RESENI BLANKETI\PISMENI\GDI\MFCKOL1_2018\MFCKOL1_2018\MFCKOL1_2018.CPP|D:\FAKULTET\4 GODINA\I SEMESTAR\GRAFIKA\RESENI BLANKETI\PISMENI\GDI\MFCKOL1_2018\MFCKOL1_2018\MFCKOL1_2018DOC.CPP|D:\FAKULTET\4 GODINA\I SEMESTAR\GRAFIKA\RESENI BLANKETI\PISMENI\GDI\MFCKOL1_2018\MFCKOL1_2018\MFCKOL1_2018VIEW.CPP
D:\FAKULTET\4 GODINA\I SEMESTAR\GRAFIKA\RESENI BLANKETI\PISMENI\GDI\MFCKOL1_2018\MFCKOL1_2018\X64\DEBUG\VC142.PDB
D:\FAKULTET\4 GODINA\I SEMESTAR\GRAFIKA\RESENI BLANKETI\PISMENI\GDI\MFCKOL1_2018\MFCKOL1_2018\X64\DEBUG\VC142.IDB
D:\FAKULTET\4 GODINA\I SEMESTAR\GRAFIKA\RESENI BLANKETI\PISMENI\GDI\MFCKOL1_2018\MFCKOL1_2018\X64\DEBUG\MFCKOL1_2018VIEW.OBJ
D:\FAKULTET\4 GODINA\I SEMESTAR\GRAFIKA\RESENI BLANKETI\PISMENI\GDI\MFCKOL1_2018\MFCKOL1_2018\X64\DEBUG\MFCKOL1_2018DOC.OBJ
D:\FAKULTET\4 GODINA\I SEMESTAR\GRAFIKA\RESENI BLANKETI\PISMENI\GDI\MFCKOL1_2018\MFCKOL1_2018\X64\DEBUG\MFCKOL1_2018.OBJ
D:\FAKULTET\4 GODINA\I SEMESTAR\GRAFIKA\RESENI BLANKETI\PISMENI\GDI\MFCKOL1_2018\MFCKOL1_2018\X64\DEBUG\MAINFRM.OBJ
D:\FAKULTET\4 GODINA\I SEMESTAR\GRAFIKA\RESENI BLANKETI\PISMENI\GDI\MFCKOL1_2018\MFCKOL1_2018\X64\DEBUG\DIMAGE.OBJ
^D:\FAKULTET\4 GODINA\I SEMESTAR\GRAFIKA\RESENI BLANKETI\PISMENI\GDI\MFCKOL1_2018\MFCKOL1_2018\DIMAGE.CPP
D:\FAKULTET\4 GODINA\I SEMESTAR\GRAFIKA\RESENI BLANKETI\PISMENI\GDI\MFCKOL1_2018\MFCKOL1_2018\X64\DEBUG\VC142.PDB
^D:\FAKULTET\4 GODINA\I SEMESTAR\GRAFIKA\RESENI BLANKETI\PISMENI\GDI\MFCKOL1_2018\MFCKOL1_2018\MAINFRM.CPP
D:\FAKULTET\4 GODINA\I SEMESTAR\GRAFIKA\RESENI BLANKETI\PISMENI\GDI\MFCKOL1_2018\MFCKOL1_2018\X64\DEBUG\VC142.PDB
^D:\FAKULTET\4 GODINA\I SEMESTAR\GRAFIKA\RESENI BLANKETI\PISMENI\GDI\MFCKOL1_2018\MFCKOL1_2018\MFCKOL1_2018.CPP
D:\FAKULTET\4 GODINA\I SEMESTAR\GRAFIKA\RESENI BLANKETI\PISMENI\GDI\MFCKOL1_2018\MFCKOL1_2018\X64\DEBUG\VC142.PDB
^D:\FAKULTET\4 GODINA\I SEMESTAR\GRAFIKA\RESENI BLANKETI\PISMENI\GDI\MFCKOL1_2018\MFCKOL1_2018\MFCKOL1_2018DOC.CPP
D:\FAKULTET\4 GODINA\I SEMESTAR\GRAFIKA\RESENI BLANKETI\PISMENI\GDI\MFCKOL1_2018\MFCKOL1_2018\X64\DEBUG\VC142.PDB
^D:\FAKULTET\4 GODINA\I SEMESTAR\GRAFIKA\RESENI BLANKETI\PISMENI\GDI\MFCKOL1_2018\MFCKOL1_2018\MFCKOL1_2018VIEW.CPP
D:\FAKULTET\4 GODINA\I SEMESTAR\GRAFIKA\RESENI BLANKETI\PISMENI\GDI\MFCKOL1_2018\MFCKOL1_2018\X64\DEBUG\VC142.PDB
