^D:\FAKULTET\4 GODINA\I SEMESTAR\GRAFIKA\RESENI BLANKETI\PISMENI\GDI\GDI\MFCKOL1_2018\STDAFX.CPP
/c /ZI /JMC /nologo /W3 /WX- /diagnostics:column /sdl /Od /D _WINDOWS /D _DEBUG /D _UNICODE /D UNICODE /D _AFXDLL /Gm- /EHsc /RTC1 /MDd /GS /fp:precise /Zc:wchar_t /Zc:forScope /Zc:inline /Yc"stdafx.h" /Fp"X64\DEBUG\GDI.PCH" /Fo"X64\DEBUG\\" /Fd"X64\DEBUG\VC142.PDB" /Gd /TP /FC D:\FAKULTET\4 GODINA\I SEMESTAR\GRAFIKA\RESENI BLANKETI\PISMENI\GDI\GDI\MFCKOL1_2018\STDAFX.CPP
^D:\FAKULTET\4 GODINA\I SEMESTAR\GRAFIKA\RESENI BLANKETI\PISMENI\GDI\GDI\MFCKOL1_2018\DIMAGE.CPP
/c /ZI /JMC /nologo /W3 /WX- /diagnostics:column /sdl /Od /D _WINDOWS /D _DEBUG /D _UNICODE /D UNICODE /D _AFXDLL /Gm- /EHsc /RTC1 /MDd /GS /fp:precise /Zc:wchar_t /Zc:forScope /Zc:inline /Yu"stdafx.h" /Fp"X64\DEBUG\GDI.PCH" /Fo"X64\DEBUG\\" /Fd"X64\DEBUG\VC142.PDB" /Gd /TP /FC D:\FAKULTET\4 GODINA\I SEMESTAR\GRAFIKA\RESENI BLANKETI\PISMENI\GDI\GDI\MFCKOL1_2018\DIMAGE.CPP
^D:\FAKULTET\4 GODINA\I SEMESTAR\GRAFIKA\RESENI BLANKETI\PISMENI\GDI\GDI\MFCKOL1_2018\MAINFRM.CPP
/c /ZI /JMC /nologo /W3 /WX- /diagnostics:column /sdl /Od /D _WINDOWS /D _DEBUG /D _UNICODE /D UNICODE /D _AFXDLL /Gm- /EHsc /RTC1 /MDd /GS /fp:precise /Zc:wchar_t /Zc:forScope /Zc:inline /Yu"stdafx.h" /Fp"X64\DEBUG\GDI.PCH" /Fo"X64\DEBUG\\" /Fd"X64\DEBUG\VC142.PDB" /Gd /TP /FC D:\FAKULTET\4 GODINA\I SEMESTAR\GRAFIKA\RESENI BLANKETI\PISMENI\GDI\GDI\MFCKOL1_2018\MAINFRM.CPP
^D:\FAKULTET\4 GODINA\I SEMESTAR\GRAFIKA\RESENI BLANKETI\PISMENI\GDI\GDI\MFCKOL1_2018\GDI.CPP
/c /ZI /JMC /nologo /W3 /WX- /diagnostics:column /sdl /Od /D _WINDOWS /D _DEBUG /D _UNICODE /D UNICODE /D _AFXDLL /Gm- /EHsc /RTC1 /MDd /GS /fp:precise /Zc:wchar_t /Zc:forScope /Zc:inline /Yu"stdafx.h" /Fp"X64\DEBUG\GDI.PCH" /Fo"X64\DEBUG\\" /Fd"X64\DEBUG\VC142.PDB" /Gd /TP /FC D:\FAKULTET\4 GODINA\I SEMESTAR\GRAFIKA\RESENI BLANKETI\PISMENI\GDI\GDI\MFCKOL1_2018\GDI.CPP
^D:\FAKULTET\4 GODINA\I SEMESTAR\GRAFIKA\RESENI BLANKETI\PISMENI\GDI\GDI\MFCKOL1_2018\GDIDOC.CPP
/c /ZI /JMC /nologo /W3 /WX- /diagnostics:column /sdl /Od /D _WINDOWS /D _DEBUG /D _UNICODE /D UNICODE /D _AFXDLL /Gm- /EHsc /RTC1 /MDd /GS /fp:precise /Zc:wchar_t /Zc:forScope /Zc:inline /Yu"stdafx.h" /Fp"X64\DEBUG\GDI.PCH" /Fo"X64\DEBUG\\" /Fd"X64\DEBUG\VC142.PDB" /Gd /TP /FC D:\FAKULTET\4 GODINA\I SEMESTAR\GRAFIKA\RESENI BLANKETI\PISMENI\GDI\GDI\MFCKOL1_2018\GDIDOC.CPP
^D:\FAKULTET\4 GODINA\I SEMESTAR\GRAFIKA\RESENI BLANKETI\PISMENI\GDI\GDI\MFCKOL1_2018\GDIVIEW.CPP
/c /ZI /JMC /nologo /W3 /WX- /diagnostics:column /sdl /Od /D _WINDOWS /D _DEBUG /D _UNICODE /D UNICODE /D _AFXDLL /Gm- /EHsc /RTC1 /MDd /GS /fp:precise /Zc:wchar_t /Zc:forScope /Zc:inline /Yu"stdafx.h" /Fp"X64\DEBUG\GDI.PCH" /Fo"X64\DEBUG\\" /Fd"X64\DEBUG\VC142.PDB" /Gd /TP /FC D:\FAKULTET\4 GODINA\I SEMESTAR\GRAFIKA\RESENI BLANKETI\PISMENI\GDI\GDI\MFCKOL1_2018\GDIVIEW.CPP
