^D:\FAKULTET\4 GODINA\I SEMESTAR\GRAFIKA\RESENI BLANKETI\PISMENI\GDI\GDI\MFCKOL1_2018\X64\DEBUG\DIMAGE.OBJ|D:\FAKULTET\4 GODINA\I SEMESTAR\GRAFIKA\RESENI BLANKETI\PISMENI\GDI\GDI\MFCKOL1_2018\X64\DEBUG\GDI.OBJ|D:\FAKULTET\4 GODINA\I SEMESTAR\GRAFIKA\RESENI BLANKETI\PISMENI\GDI\GDI\MFCKOL1_2018\X64\DEBUG\GDIDOC.OBJ|D:\FAKULTET\4 GODINA\I SEMESTAR\GRAFIKA\RESENI BLANKETI\PISMENI\GDI\GDI\MFCKOL1_2018\X64\DEBUG\GDIVIEW.OBJ|D:\FAKULTET\4 GODINA\I SEMESTAR\GRAFIKA\RESENI BLANKETI\PISMENI\GDI\GDI\MFCKOL1_2018\X64\DEBUG\MAINFRM.OBJ|D:\FAKULTET\4 GODINA\I SEMESTAR\GRAFIKA\RESENI BLANKETI\PISMENI\GDI\GDI\MFCKOL1_2018\X64\DEBUG\MFCKOL12018.RES|D:\FAKULTET\4 GODINA\I SEMESTAR\GRAFIKA\RESENI BLANKETI\PISMENI\GDI\GDI\MFCKOL1_2018\X64\DEBUG\STDAFX.OBJ
D:\FAKULTET\4 GODINA\I SEMESTAR\GRAFIKA\RESENI BLANKETI\PISMENI\GDI\GDI\MFCKOL1_2018\X64\DEBUG\MFCKOL12018.RES
D:\FAKULTET\4 GODINA\I SEMESTAR\GRAFIKA\RESENI BLANKETI\PISMENI\GDI\GDI\MFCKOL1_2018\X64\DEBUG\DIMAGE.OBJ
D:\FAKULTET\4 GODINA\I SEMESTAR\GRAFIKA\RESENI BLANKETI\PISMENI\GDI\GDI\MFCKOL1_2018\X64\DEBUG\MAINFRM.OBJ
D:\FAKULTET\4 GODINA\I SEMESTAR\GRAFIKA\RESENI BLANKETI\PISMENI\GDI\GDI\MFCKOL1_2018\X64\DEBUG\GDI.OBJ
D:\FAKULTET\4 GODINA\I SEMESTAR\GRAFIKA\RESENI BLANKETI\PISMENI\GDI\GDI\MFCKOL1_2018\X64\DEBUG\GDIDOC.OBJ
D:\FAKULTET\4 GODINA\I SEMESTAR\GRAFIKA\RESENI BLANKETI\PISMENI\GDI\GDI\MFCKOL1_2018\X64\DEBUG\GDIVIEW.OBJ
D:\FAKULTET\4 GODINA\I SEMESTAR\GRAFIKA\RESENI BLANKETI\PISMENI\GDI\GDI\MFCKOL1_2018\X64\DEBUG\STDAFX.OBJ
C:\PROGRAM FILES (X86)\MICROSOFT VISUAL STUDIO\2019\COMMUNITY\VC\TOOLS\MSVC\14.24.28314\INCLUDE\MANIFEST\DPIAWARE.MANIFEST
C:\WINDOWS\GLOBALIZATION\SORTING\SORTDEFAULT.NLS
C:\PROGRAM FILES (X86)\MICROSOFT VISUAL STUDIO\2019\COMMUNITY\VC\TOOLS\MSVC\14.24.28314\ATLMFC\LIB\X64\MFC140UD.LIB
C:\PROGRAM FILES (X86)\MICROSOFT VISUAL STUDIO\2019\COMMUNITY\VC\TOOLS\MSVC\14.24.28314\ATLMFC\LIB\X64\MFCS140UD.LIB
C:\PROGRAM FILES (X86)\MICROSOFT VISUAL STUDIO\2019\COMMUNITY\VC\TOOLS\MSVC\14.24.28314\LIB\X64\MSVCRTD.LIB
C:\PROGRAM FILES (X86)\WINDOWS KITS\10\LIB\10.0.18362.0\UM\X64\KERNEL32.LIB
C:\PROGRAM FILES (X86)\WINDOWS KITS\10\LIB\10.0.18362.0\UM\X64\USER32.LIB
C:\PROGRAM FILES (X86)\WINDOWS KITS\10\LIB\10.0.18362.0\UM\X64\GDI32.LIB
C:\PROGRAM FILES (X86)\WINDOWS KITS\10\LIB\10.0.18362.0\UM\X64\MSIMG32.LIB
C:\PROGRAM FILES (X86)\WINDOWS KITS\10\LIB\10.0.18362.0\UM\X64\COMDLG32.LIB
C:\PROGRAM FILES (X86)\WINDOWS KITS\10\LIB\10.0.18362.0\UM\X64\WINSPOOL.LIB
C:\PROGRAM FILES (X86)\WINDOWS KITS\10\LIB\10.0.18362.0\UM\X64\ADVAPI32.LIB
C:\PROGRAM FILES (X86)\WINDOWS KITS\10\LIB\10.0.18362.0\UM\X64\SHELL32.LIB
C:\PROGRAM FILES (X86)\WINDOWS KITS\10\LIB\10.0.18362.0\UM\X64\COMCTL32.LIB
C:\PROGRAM FILES (X86)\WINDOWS KITS\10\LIB\10.0.18362.0\UM\X64\SHLWAPI.LIB
C:\PROGRAM FILES (X86)\WINDOWS KITS\10\LIB\10.0.18362.0\UM\X64\UXTHEME.LIB
C:\PROGRAM FILES (X86)\WINDOWS KITS\10\LIB\10.0.18362.0\UM\X64\WINDOWSCODECS.LIB
C:\PROGRAM FILES (X86)\WINDOWS KITS\10\LIB\10.0.18362.0\UM\X64\UUID.LIB
C:\PROGRAM FILES (X86)\MICROSOFT VISUAL STUDIO\2019\COMMUNITY\VC\TOOLS\MSVC\14.24.28314\ATLMFC\LIB\X64\ATLS.LIB
C:\PROGRAM FILES (X86)\WINDOWS KITS\10\LIB\10.0.18362.0\UM\X64\OLE32.LIB
C:\PROGRAM FILES (X86)\WINDOWS KITS\10\LIB\10.0.18362.0\UM\X64\OLEAUT32.LIB
C:\PROGRAM FILES (X86)\WINDOWS KITS\10\LIB\10.0.18362.0\UM\X64\OLEDLG.LIB
C:\PROGRAM FILES (X86)\WINDOWS KITS\10\LIB\10.0.18362.0\UM\X64\URLMON.LIB
C:\PROGRAM FILES (X86)\WINDOWS KITS\10\LIB\10.0.18362.0\UM\X64\GDIPLUS.LIB
C:\PROGRAM FILES (X86)\MICROSOFT VISUAL STUDIO\2019\COMMUNITY\VC\TOOLS\MSVC\14.24.28314\LIB\X64\COMSUPPWD.LIB
C:\PROGRAM FILES (X86)\MICROSOFT VISUAL STUDIO\2019\COMMUNITY\VC\TOOLS\MSVC\14.24.28314\LIB\X64\OLDNAMES.LIB
C:\PROGRAM FILES (X86)\MICROSOFT VISUAL STUDIO\2019\COMMUNITY\VC\TOOLS\MSVC\14.24.28314\LIB\X64\MSVCPRTD.LIB
C:\PROGRAM FILES (X86)\WINDOWS KITS\10\LIB\10.0.18362.0\UM\X64\WININET.LIB
C:\PROGRAM FILES (X86)\WINDOWS KITS\10\LIB\10.0.18362.0\UM\X64\WS2_32.LIB
C:\PROGRAM FILES (X86)\WINDOWS KITS\10\LIB\10.0.18362.0\UM\X64\MSWSOCK.LIB
C:\PROGRAM FILES (X86)\MICROSOFT VISUAL STUDIO\2019\COMMUNITY\VC\TOOLS\MSVC\14.24.28314\LIB\X64\VCRUNTIMED.LIB
C:\PROGRAM FILES (X86)\WINDOWS KITS\10\LIB\10.0.18362.0\UCRT\X64\UCRTD.LIB
C:\PROGRAM FILES (X86)\MICROSOFT VISUAL STUDIO\2019\COMMUNITY\VC\TOOLS\MSVC\14.24.28314\BIN\HOSTX86\X64\CVTRES.EXE
C:\PROGRAM FILES (X86)\MICROSOFT VISUAL STUDIO\2019\COMMUNITY\VC\TOOLS\MSVC\14.24.28314\BIN\HOSTX86\X64\MSPDBSRV.EXE
C:\WINDOWS\SYSTEM32\TZRES.DLL
C:\WINDOWS\SYSTEM32\RSAENH.DLL
